Suite/Test/Step Name,Browser,Description,Tag,Start time,End time,Duration,Status
TCCP 01 - 05,Chrome 113.0.0.0,Test suite for Test Case,,2023-05-13 07:14:15,2023-05-13 07:16:44,"2m - 28,957s",PASSED
,,,,,,,
Test Cases/Change Profile/TSCP 01 - Melakukan perubahan data profile/TCCP 01 - Verifikasi halaman menu profile,Chrome 113.0.0.0,menekan menu profile,Change profile,2023-05-13 07:14:16,2023-05-13 07:14:47,"31,530s",PASSED
"openBrowser("""")",Chrome 113.0.0.0,,,2023-05-13 07:14:17,2023-05-13 07:14:21,"3,781s",PASSED
"navigateToUrl(""https://demo-app.online/"")",Chrome 113.0.0.0,,,2023-05-13 07:14:21,2023-05-13 07:14:31,"10,160s",PASSED
"click(findTestObject(""Change Profile/Login Change Profile/a_Masuk""))",Chrome 113.0.0.0,,,2023-05-13 07:14:31,2023-05-13 07:14:37,"5,836s",PASSED
"setText(findTestObject(""Change Profile/Login Change Profile/input_Email_email""), email)",Chrome 113.0.0.0,,,2023-05-13 07:14:37,2023-05-13 07:14:38,"1,468s",PASSED
"setText(findTestObject(""Change Profile/Login Change Profile/input_Kata sandi""), katasandi)",Chrome 113.0.0.0,,,2023-05-13 07:14:38,2023-05-13 07:14:39,"0,984s",PASSED
"click(findTestObject(""Change Profile/Login Change Profile/button_Login""))",Chrome 113.0.0.0,,,2023-05-13 07:14:39,2023-05-13 07:14:41,"1,784s",PASSED
"click(findTestObject(""Change Profile/TCCP 01 - verifikasi halaman menu profile/toggle_akun""))",Chrome 113.0.0.0,,,2023-05-13 07:14:41,2023-05-13 07:14:41,"0,707s",PASSED
"click(findTestObject(""Change Profile/TCCP 02 - verifikasi halaman edit profile/menu_My Account""))",Chrome 113.0.0.0,,,2023-05-13 07:14:41,2023-05-13 07:14:44,"2,130s",PASSED
verifyLinksAccessible([]),Chrome 113.0.0.0,,,2023-05-13 07:14:44,2023-05-13 07:14:44,"0,062s",PASSED
takeFullPageScreenshot(),Chrome 113.0.0.0,,,2023-05-13 07:14:44,2023-05-13 07:14:45,"1,486s",PASSED
"click(findTestObject(""Change Profile/TCCP 01 - verifikasi halaman menu profile/menu_Profil""))",Chrome 113.0.0.0,,,2023-05-13 07:14:45,2023-05-13 07:14:46,"1,068s",PASSED
takeFullPageScreenshot(),Chrome 113.0.0.0,,,2023-05-13 07:14:46,2023-05-13 07:14:47,"1,256s",PASSED
,,,,,,,
Test Cases/Change Profile/TSCP 01 - Melakukan perubahan data profile/TCCP 02 - Verifikasi halaman edit profile,Chrome 113.0.0.0,User menekan tombol edit profile,Change Profile,2023-05-13 07:14:48,2023-05-13 07:15:12,"24,239s",PASSED
"callTestCase(findTestCase(""Change Profile/Login Change Profil""), [:], STOP_ON_FAILURE)",Chrome 113.0.0.0,,,2023-05-13 07:14:49,2023-05-13 07:15:05,"16,101s",PASSED
"click(findTestObject(""Change Profile/TCCP 02 - verifikasi halaman edit profile/toggle_akun""))",Chrome 113.0.0.0,,,2023-05-13 07:15:05,2023-05-13 07:15:06,"0,856s",PASSED
"click(findTestObject(""Change Profile/TCCP 02 - verifikasi halaman edit profile/menu_My Account""))",Chrome 113.0.0.0,,,2023-05-13 07:15:06,2023-05-13 07:15:08,"2,122s",PASSED
"click(findTestObject(""Change Profile/TCCP 02 - verifikasi halaman edit profile/menu_Profil""))",Chrome 113.0.0.0,,,2023-05-13 07:15:08,2023-05-13 07:15:09,"1,257s",PASSED
"click(findTestObject(""Change Profile/TCCP 02 - verifikasi halaman edit profile/menu_Edit Profile""))",Chrome 113.0.0.0,,,2023-05-13 07:15:09,2023-05-13 07:15:11,"1,616s",PASSED
verifyLinksAccessible([]),Chrome 113.0.0.0,,,2023-05-13 07:15:11,2023-05-13 07:15:11,"0,007s",PASSED
takeFullPageScreenshot(),Chrome 113.0.0.0,,,2023-05-13 07:15:11,2023-05-13 07:15:12,"1,160s",PASSED
,,,,,,,
Test Cases/Change Profile/TSCP 01 - Melakukan perubahan data profile/TCCP 03 - User mengubah foto profil dengan extensi foto valid,Chrome 113.0.0.0,User mengubah foto profil dengan extensi foto valid,Change profile,2023-05-13 07:15:12,2023-05-13 07:15:44,"32,061s",PASSED
"callTestCase(findTestCase(""Change Profile/Login Change Profil""), [:], STOP_ON_FAILURE)",Chrome 113.0.0.0,,,2023-05-13 07:15:13,2023-05-13 07:15:30,"16,843s",PASSED
"click(findTestObject(""Change Profile/TCCP 03 - mengubah foto profil dengan extensi foto valid/toggle_akun""))",Chrome 113.0.0.0,,,2023-05-13 07:15:30,2023-05-13 07:15:31,"1,305s",PASSED
"click(findTestObject(""Change Profile/TCCP 03 - mengubah foto profil dengan extensi foto valid/menu_My Account""))",Chrome 113.0.0.0,,,2023-05-13 07:15:31,2023-05-13 07:15:34,"2,689s",PASSED
"click(findTestObject(""Change Profile/TCCP 03 - mengubah foto profil dengan extensi foto valid/menu_Profil""))",Chrome 113.0.0.0,,,2023-05-13 07:15:34,2023-05-13 07:15:35,"1,249s",PASSED
"click(findTestObject(""Change Profile/TCCP 03 - mengubah foto profil dengan extensi foto valid/menu_Edit Profile""))",Chrome 113.0.0.0,,,2023-05-13 07:15:35,2023-05-13 07:15:36,"1,374s",PASSED
"folder = System.getProperty(""user.dir"")",Chrome 113.0.0.0,,,2023-05-13 07:15:36,2023-05-13 07:15:36,"0,002s",PASSED
"uploadFile(findTestObject(""Change Profile/TCCP 03 - mengubah foto profil dengan extensi foto valid/Choose files""), folder + ""/Upload/salah.png"")",Chrome 113.0.0.0,,,2023-05-13 07:15:36,2023-05-13 07:15:38,"1,452s",PASSED
"click(findTestObject(""Change Profile/TCCP 03 - mengubah foto profil dengan extensi foto valid/button_Save Changes""))",Chrome 113.0.0.0,,,2023-05-13 07:15:38,2023-05-13 07:15:41,"2,840s",PASSED
takeFullPageScreenshot(),Chrome 113.0.0.0,,,2023-05-13 07:15:41,2023-05-13 07:15:42,"1,379s",PASSED
"click(findTestObject(""Change Profile/TCCP 03 - mengubah foto profil dengan extensi foto valid/button_OK""))",Chrome 113.0.0.0,,,2023-05-13 07:15:42,2023-05-13 07:15:43,"0,805s",PASSED
takeFullPageScreenshot(),Chrome 113.0.0.0,,,2023-05-13 07:15:43,2023-05-13 07:15:44,"1,128s",PASSED
,,,,,,,
Test Cases/Change Profile/TSCP 01 - Melakukan perubahan data profile/TCCP 04 - User mengubah nama valid,Chrome 113.0.0.0,User mengubah nama valid,Change profile,2023-05-13 07:15:44,2023-05-13 07:16:14,"30,172s",PASSED
"callTestCase(findTestCase(""Change Profile/Login Change Profil""), [:], STOP_ON_FAILURE)",Chrome 113.0.0.0,,,2023-05-13 07:15:45,2023-05-13 07:16:00,"15,792s",PASSED
"click(findTestObject(""Change Profile/TCCP 04 - mengubah nama valid/toggle_akun""))",Chrome 113.0.0.0,,,2023-05-13 07:16:00,2023-05-13 07:16:01,"0,989s",PASSED
"click(findTestObject(""Change Profile/TCCP 04 - mengubah nama valid/menu_My Account""))",Chrome 113.0.0.0,,,2023-05-13 07:16:01,2023-05-13 07:16:03,"1,687s",PASSED
"click(findTestObject(""Change Profile/TCCP 04 - mengubah nama valid/menu_Profil""))",Chrome 113.0.0.0,,,2023-05-13 07:16:03,2023-05-13 07:16:04,"1,333s",PASSED
"click(findTestObject(""Change Profile/TCCP 04 - mengubah nama valid/menu_Edit Profile""))",Chrome 113.0.0.0,,,2023-05-13 07:16:04,2023-05-13 07:16:06,"1,388s",PASSED
"setText(findTestObject(""Change Profile/TCCP 04 - mengubah nama valid/input_Fullname_name""), ""Muhammad Salah"")",Chrome 113.0.0.0,,,2023-05-13 07:16:06,2023-05-13 07:16:08,"1,997s",PASSED
takeFullPageScreenshot(),Chrome 113.0.0.0,,,2023-05-13 07:16:08,2023-05-13 07:16:09,"1,024s",PASSED
"click(findTestObject(""Change Profile/TCCP 04 - mengubah nama valid/button_Save Changes""))",Chrome 113.0.0.0,,,2023-05-13 07:16:09,2023-05-13 07:16:11,"1,786s",PASSED
"verifyElementText(findTestObject(""Change Profile/TCCP 04 - mengubah nama valid/div_Berhasil""), ""Berhasil"")",Chrome 113.0.0.0,,,2023-05-13 07:16:11,2023-05-13 07:16:12,"1,385s",PASSED
takeFullPageScreenshot(),Chrome 113.0.0.0,,,2023-05-13 07:16:12,2023-05-13 07:16:13,"0,821s",PASSED
"click(findTestObject(""Change Profile/TCCP 04 - mengubah nama valid/button_OK""))",Chrome 113.0.0.0,,,2023-05-13 07:16:13,2023-05-13 07:16:13,"0,509s",PASSED
takeFullPageScreenshot(),Chrome 113.0.0.0,,,2023-05-13 07:16:13,2023-05-13 07:16:14,"0,737s",PASSED
,,,,,,,
Test Cases/Change Profile/TSCP 01 - Melakukan perubahan data profile/TCCP 05 - User mengubah nama lebih dari 30 karakter,Chrome 113.0.0.0,User mengubah nama lebih dari 30 karakter,Change profile,2023-05-13 07:16:14,2023-05-13 07:16:44,"30,198s",PASSED
"callTestCase(findTestCase(""Change Profile/Login Change Profil""), [:], STOP_ON_FAILURE)",Chrome 113.0.0.0,,,2023-05-13 07:16:15,2023-05-13 07:16:31,"15,737s",PASSED
"click(findTestObject(""Change Profile/TCCP 05 - mengubah nama lebih dari 30 karakter/toggle_akun""))",Chrome 113.0.0.0,,,2023-05-13 07:16:31,2023-05-13 07:16:31,"0,876s",PASSED
"click(findTestObject(""Change Profile/TCCP 05 - mengubah nama lebih dari 30 karakter/menu_My Account""))",Chrome 113.0.0.0,,,2023-05-13 07:16:31,2023-05-13 07:16:34,"3,014s",PASSED
"click(findTestObject(""Change Profile/TCCP 05 - mengubah nama lebih dari 30 karakter/menu_Profil""))",Chrome 113.0.0.0,,,2023-05-13 07:16:34,2023-05-13 07:16:36,"1,334s",PASSED
"click(findTestObject(""Change Profile/TCCP 05 - mengubah nama lebih dari 30 karakter/menu_Edit Profile""))",Chrome 113.0.0.0,,,2023-05-13 07:16:36,2023-05-13 07:16:37,"1,258s",PASSED
"setText(findTestObject(""Change Profile/TCCP 05 - mengubah nama lebih dari 30 karakter/input_Fullname_name""), ""Muhammad Salah Bin Mohammad Zayed Bin Turmidzi"")",Chrome 113.0.0.0,,,2023-05-13 07:16:37,2023-05-13 07:16:39,"1,579s",PASSED
takeFullPageScreenshot(),Chrome 113.0.0.0,,,2023-05-13 07:16:39,2023-05-13 07:16:40,"1,167s",PASSED
"click(findTestObject(""Change Profile/TCCP 05 - mengubah nama lebih dari 30 karakter/button_Save Changes""))",Chrome 113.0.0.0,,,2023-05-13 07:16:40,2023-05-13 07:16:42,"2,038s",PASSED
"verifyElementText(findTestObject(""Change Profile/TCCP 05 - mengubah nama lebih dari 30 karakter/strong_The name may not be greater than 30 characters""), ""The name may not be greater than 30 characters."")",Chrome 113.0.0.0,,,2023-05-13 07:16:42,2023-05-13 07:16:43,"1,450s",PASSED
takeFullPageScreenshot(),Chrome 113.0.0.0,,,2023-05-13 07:16:43,2023-05-13 07:16:44,"0,923s",PASSED
