Suite/Test/Step Name,Browser,Description,Tag,Start time,End time,Duration,Status
TCR 08 -13,Chrome 113.0.0.0,,,2023-05-16 11:14:05,2023-05-16 11:15:30,"1m - 24,870s",PASSED
,,,,,,,
Test Cases/BOBY/REGISTER/Negative/TCR 08- User tidak mencentang checkbox,Chrome 113.0.0.0,,,2023-05-16 11:14:06,2023-05-16 11:14:20,"13,797s",PASSED
"openBrowser("""")",Chrome 113.0.0.0,,,2023-05-16 11:14:06,2023-05-16 11:14:10,"3,651s",PASSED
"navigateToUrl(""https://demo-app.online/daftar?"")",Chrome 113.0.0.0,,,2023-05-16 11:14:10,2023-05-16 11:14:13,"2,785s",PASSED
"setText(findTestObject(""BOBY/REGISTER/Nama""), ""Boby"")",Chrome 113.0.0.0,,,2023-05-16 11:14:13,2023-05-16 11:14:14,"1,215s",PASSED
"setText(findTestObject(""BOBY/REGISTER/Tanggal lahir""), ""15-May-2002"")",Chrome 113.0.0.0,,,2023-05-16 11:14:14,2023-05-16 11:14:16,"1,379s",PASSED
"setText(findTestObject(""BOBY/REGISTER/E-Mail""), ""Boby@gmail.com"")",Chrome 113.0.0.0,,,2023-05-16 11:14:16,2023-05-16 11:14:16,"0,904s",PASSED
"setText(findTestObject(""BOBY/REGISTER/Whatsapp""), ""085358000000"")",Chrome 113.0.0.0,,,2023-05-16 11:14:16,2023-05-16 11:14:17,"0,917s",PASSED
"setEncryptedText(findTestObject(""BOBY/REGISTER/Kata Sandi""), ""BR4+6ebIRw/89ruX5hJDag=="")",Chrome 113.0.0.0,,,2023-05-16 11:14:17,2023-05-16 11:14:18,"1,073s",PASSED
"setEncryptedText(findTestObject(""BOBY/REGISTER/Konfirmasi kata sandi""), ""BR4+6ebIRw/89ruX5hJDag=="")",Chrome 113.0.0.0,,,2023-05-16 11:14:18,2023-05-16 11:14:19,"0,597s",PASSED
"click(findTestObject(""BOBY/REGISTER/button_Daftar""))",Chrome 113.0.0.0,,,2023-05-16 11:14:19,2023-05-16 11:14:20,"0,551s",PASSED
,,,,,,,
Test Cases/BOBY/REGISTER/Negative/TCR 09- User input null nama,Chrome 113.0.0.0,,,2023-05-16 11:14:20,2023-05-16 11:14:32,"11,986s",PASSED
"openBrowser("""")",Chrome 113.0.0.0,,,2023-05-16 11:14:20,2023-05-16 11:14:23,"2,580s",PASSED
"navigateToUrl(""https://demo-app.online/daftar?"")",Chrome 113.0.0.0,,,2023-05-16 11:14:23,2023-05-16 11:14:26,"2,627s",PASSED
"setText(findTestObject(""BOBY/REGISTER/Tanggal lahir""), ""15-May-2002"")",Chrome 113.0.0.0,,,2023-05-16 11:14:26,2023-05-16 11:14:27,"1,567s",PASSED
"setText(findTestObject(""BOBY/REGISTER/E-Mail""), ""Boby@gmail.com"")",Chrome 113.0.0.0,,,2023-05-16 11:14:27,2023-05-16 11:14:28,"1,015s",PASSED
"setText(findTestObject(""BOBY/REGISTER/Whatsapp""), ""085358000000"")",Chrome 113.0.0.0,,,2023-05-16 11:14:28,2023-05-16 11:14:29,"0,907s",PASSED
"setEncryptedText(findTestObject(""BOBY/REGISTER/Kata Sandi""), ""BR4+6ebIRw/89ruX5hJDag=="")",Chrome 113.0.0.0,,,2023-05-16 11:14:29,2023-05-16 11:14:30,"0,604s",PASSED
"setEncryptedText(findTestObject(""BOBY/REGISTER/Konfirmasi kata sandi""), ""BR4+6ebIRw/89ruX5hJDag=="")",Chrome 113.0.0.0,,,2023-05-16 11:14:30,2023-05-16 11:14:30,"0,642s",PASSED
"click(findTestObject(""BOBY/REGISTER/Checkbox1""))",Chrome 113.0.0.0,,,2023-05-16 11:14:30,2023-05-16 11:14:31,"0,654s",PASSED
"click(findTestObject(""BOBY/REGISTER/button_Daftar""))",Chrome 113.0.0.0,,,2023-05-16 11:14:31,2023-05-16 11:14:32,"0,528s",PASSED
,,,,,,,
Test Cases/BOBY/REGISTER/Negative/TCR 11- User input nul tanggal lahir,Chrome 113.0.0.0,,,2023-05-16 11:14:32,2023-05-16 11:15:02,"30,462s",PASSED
"openBrowser("""")",Chrome 113.0.0.0,,,2023-05-16 11:14:32,2023-05-16 11:14:35,"2,845s",PASSED
"navigateToUrl(""https://demo-app.online/daftar?"")",Chrome 113.0.0.0,,,2023-05-16 11:14:35,2023-05-16 11:14:56,"20,459s",PASSED
"setText(findTestObject(""BOBY/REGISTER/Nama""), ""Boby"")",Chrome 113.0.0.0,,,2023-05-16 11:14:56,2023-05-16 11:14:57,"1,202s",PASSED
"setText(findTestObject(""BOBY/REGISTER/E-Mail""), ""Boby@gmail.com"")",Chrome 113.0.0.0,,,2023-05-16 11:14:57,2023-05-16 11:14:58,"0,925s",PASSED
"setText(findTestObject(""BOBY/REGISTER/Whatsapp""), ""085358000000"")",Chrome 113.0.0.0,,,2023-05-16 11:14:58,2023-05-16 11:14:59,"0,886s",PASSED
"setEncryptedText(findTestObject(""BOBY/REGISTER/Kata Sandi""), ""BR4+6ebIRw/89ruX5hJDag=="")",Chrome 113.0.0.0,,,2023-05-16 11:14:59,2023-05-16 11:14:59,"0,549s",PASSED
"setEncryptedText(findTestObject(""BOBY/REGISTER/Konfirmasi kata sandi""), ""BR4+6ebIRw/89ruX5hJDag=="")",Chrome 113.0.0.0,,,2023-05-16 11:14:59,2023-05-16 11:15:00,"0,578s",PASSED
"click(findTestObject(""BOBY/REGISTER/Checkbox1""))",Chrome 113.0.0.0,,,2023-05-16 11:15:00,2023-05-16 11:15:00,"0,522s",PASSED
"click(findTestObject(""BOBY/REGISTER/button_Daftar""))",Chrome 113.0.0.0,,,2023-05-16 11:15:00,2023-05-16 11:15:02,"1,585s",PASSED
,,,,,,,
Test Cases/BOBY/REGISTER/Negative/TCR 12- User input email null,Chrome 113.0.0.0,,,2023-05-16 11:15:02,2023-05-16 11:15:15,"13,317s",PASSED
"openBrowser("""")",Chrome 113.0.0.0,,,2023-05-16 11:15:03,2023-05-16 11:15:06,"2,660s",PASSED
"navigateToUrl(""https://demo-app.online/daftar?"")",Chrome 113.0.0.0,,,2023-05-16 11:15:06,2023-05-16 11:15:09,"3,299s",PASSED
"setText(findTestObject(""BOBY/REGISTER/Nama""), ""Boby"")",Chrome 113.0.0.0,,,2023-05-16 11:15:09,2023-05-16 11:15:11,"1,774s",PASSED
"setText(findTestObject(""BOBY/REGISTER/Tanggal lahir""), ""15-May-2002"")",Chrome 113.0.0.0,,,2023-05-16 11:15:11,2023-05-16 11:15:12,"1,665s",PASSED
"setText(findTestObject(""BOBY/REGISTER/Whatsapp""), ""085358000000"")",Chrome 113.0.0.0,,,2023-05-16 11:15:12,2023-05-16 11:15:13,"0,848s",PASSED
"setEncryptedText(findTestObject(""BOBY/REGISTER/Kata Sandi""), ""BR4+6ebIRw/89ruX5hJDag=="")",Chrome 113.0.0.0,,,2023-05-16 11:15:13,2023-05-16 11:15:14,"0,572s",PASSED
"setEncryptedText(findTestObject(""BOBY/REGISTER/Konfirmasi kata sandi""), ""BR4+6ebIRw/89ruX5hJDag=="")",Chrome 113.0.0.0,,,2023-05-16 11:15:14,2023-05-16 11:15:14,"0,652s",PASSED
"click(findTestObject(""BOBY/REGISTER/Checkbox1""))",Chrome 113.0.0.0,,,2023-05-16 11:15:14,2023-05-16 11:15:15,"0,490s",PASSED
"click(findTestObject(""BOBY/REGISTER/button_Daftar""))",Chrome 113.0.0.0,,,2023-05-16 11:15:15,2023-05-16 11:15:15,"0,513s",PASSED
,,,,,,,
Test Cases/BOBY/REGISTER/Negative/TCR 13- User input email terdaftar,Chrome 113.0.0.0,,,2023-05-16 11:15:15,2023-05-16 11:15:30,"14,724s",PASSED
"openBrowser("""")",Chrome 113.0.0.0,,,2023-05-16 11:15:16,2023-05-16 11:15:20,"3,387s",PASSED
"navigateToUrl(""https://demo-app.online/daftar?"")",Chrome 113.0.0.0,,,2023-05-16 11:15:20,2023-05-16 11:15:22,"2,659s",PASSED
"setText(findTestObject(""BOBY/REGISTER/Nama""), ""Boby"")",Chrome 113.0.0.0,,,2023-05-16 11:15:22,2023-05-16 11:15:24,"1,332s",PASSED
"setText(findTestObject(""BOBY/REGISTER/Tanggal lahir""), ""15-May-2002"")",Chrome 113.0.0.0,,,2023-05-16 11:15:24,2023-05-16 11:15:25,"1,661s",PASSED
"setText(findTestObject(""BOBY/REGISTER/E-Mail""), ""bobyaritonang70@gmail.com"")",Chrome 113.0.0.0,,,2023-05-16 11:15:25,2023-05-16 11:15:26,"0,923s",PASSED
"setText(findTestObject(""BOBY/REGISTER/Whatsapp""), ""085358000000"")",Chrome 113.0.0.0,,,2023-05-16 11:15:26,2023-05-16 11:15:27,"0,845s",PASSED
"setEncryptedText(findTestObject(""BOBY/REGISTER/Kata Sandi""), ""BR4+6ebIRw/89ruX5hJDag=="")",Chrome 113.0.0.0,,,2023-05-16 11:15:27,2023-05-16 11:15:28,"0,684s",PASSED
"setEncryptedText(findTestObject(""BOBY/REGISTER/Konfirmasi kata sandi""), ""BR4+6ebIRw/89ruX5hJDag=="")",Chrome 113.0.0.0,,,2023-05-16 11:15:28,2023-05-16 11:15:28,"0,571s",PASSED
"click(findTestObject(""BOBY/REGISTER/Checkbox1""))",Chrome 113.0.0.0,,,2023-05-16 11:15:28,2023-05-16 11:15:29,"0,492s",PASSED
"click(findTestObject(""BOBY/REGISTER/button_Daftar""))",Chrome 113.0.0.0,,,2023-05-16 11:15:29,2023-05-16 11:15:30,"1,355s",PASSED
