Suite/Test/Step Name,Browser,Description,Tag,Start time,End time,Duration,Status
TSEvents 02 - User melakukan pembayaran event,Chrome 113.0.0.0,Test suites for TSEvents 02,,2023-05-11 21:29:27,2023-05-11 21:33:54,"4m - 27,129s",PASSED
,,,,,,,
Test Cases/Buy Events/TSEvents 02 - User melakukan pembayaran event/TCEvents 07 - User melakukan pembelian events melalui transfer bank,Chrome 113.0.0.0,User melakukan pembelian events melalui transfer bank,Events,2023-05-11 21:29:28,2023-05-11 21:30:33,"1m - 5,715s",PASSED
"callTestCase(findTestCase(""Buy Events/Login Events""), [:], STOP_ON_FAILURE)",Chrome 113.0.0.0,,,2023-05-11 21:29:28,2023-05-11 21:29:45,"16,869s",PASSED
"click(findTestObject(""Buy Events/TSEvents 02 - User melakukan pembayaran event/TCEvents 07 - User melakukan pembelian events melalui transfer bank/menu_Events""))",Chrome 113.0.0.0,,,2023-05-11 21:29:45,2023-05-11 21:29:50,"5,196s",PASSED
takeFullPageScreenshot(),Chrome 113.0.0.0,,,2023-05-11 21:29:50,2023-05-11 21:29:53,"2,894s",PASSED
"click(findTestObject(""Buy Events/TSEvents 02 - User melakukan pembayaran event/TCEvents 07 - User melakukan pembelian events melalui transfer bank/div_Day 3 Predict using Machine Learning""))",Chrome 113.0.0.0,,,2023-05-11 21:29:53,2023-05-11 21:29:59,"5,665s",PASSED
takeFullPageScreenshot(),Chrome 113.0.0.0,,,2023-05-11 21:29:59,2023-05-11 21:30:02,"2,658s",PASSED
"click(findTestObject(""Buy Events/TSEvents 02 - User melakukan pembayaran event/TCEvents 07 - User melakukan pembelian events melalui transfer bank/a_Beli Tiket""))",Chrome 113.0.0.0,,,2023-05-11 21:30:02,2023-05-11 21:30:02,"0,487s",PASSED
takeFullPageScreenshot(),Chrome 113.0.0.0,,,2023-05-11 21:30:02,2023-05-11 21:30:04,"1,788s",PASSED
"click(findTestObject(""Buy Events/TSEvents 02 - User melakukan pembayaran event/TCEvents 07 - User melakukan pembelian events melalui transfer bank/a_Lihat Pembelian Saya""))",Chrome 113.0.0.0,,,2023-05-11 21:30:04,2023-05-11 21:30:05,"1,336s",PASSED
takeFullPageScreenshot(),Chrome 113.0.0.0,,,2023-05-11 21:30:05,2023-05-11 21:30:06,"1,068s",PASSED
"click(findTestObject(""Buy Events/TSEvents 02 - User melakukan pembayaran event/TCEvents 07 - User melakukan pembelian events melalui transfer bank/button_Checkout""))",Chrome 113.0.0.0,,,2023-05-11 21:30:06,2023-05-11 21:30:07,"0,506s",PASSED
"check(findTestObject(""Buy Events/TSEvents 02 - User melakukan pembayaran event/TCEvents 07 - User melakukan pembelian events melalui transfer bank/input_Total Pembayaran_payment_method""))",Chrome 113.0.0.0,,,2023-05-11 21:30:07,2023-05-11 21:30:08,"0,804s",PASSED
takeFullPageScreenshot(),Chrome 113.0.0.0,,,2023-05-11 21:30:08,2023-05-11 21:30:09,"0,906s",PASSED
"click(findTestObject(""Buy Events/TSEvents 02 - User melakukan pembayaran event/TCEvents 07 - User melakukan pembelian events melalui transfer bank/button_Confirm""))",Chrome 113.0.0.0,,,2023-05-11 21:30:09,2023-05-11 21:30:09,"0,449s",PASSED
delay(10),Chrome 113.0.0.0,,,2023-05-11 21:30:09,2023-05-11 21:30:19,"10,026s",PASSED
takeFullPageScreenshot(),Chrome 113.0.0.0,,,2023-05-11 21:30:19,2023-05-11 21:30:20,"0,987s",PASSED
"click(findTestObject(""Buy Events/TSEvents 02 - User melakukan pembayaran event/TCEvents 07 - User melakukan pembelian events melalui transfer bank/a_Bank transfer""))",Chrome 113.0.0.0,,,2023-05-11 21:30:20,2023-05-11 21:30:21,"0,772s",PASSED
takeFullPageScreenshot(),Chrome 113.0.0.0,,,2023-05-11 21:30:21,2023-05-11 21:30:22,"0,911s",PASSED
delay(5),Chrome 113.0.0.0,,,2023-05-11 21:30:22,2023-05-11 21:30:27,"5,012s",PASSED
"click(findTestObject(""Buy Events/TSEvents 02 - User melakukan pembayaran event/TCEvents 07 - User melakukan pembelian events melalui transfer bank/div_BCA""))",Chrome 113.0.0.0,,,2023-05-11 21:30:27,2023-05-11 21:30:27,"0,703s",PASSED
delay(5),Chrome 113.0.0.0,,,2023-05-11 21:30:27,2023-05-11 21:30:32,"5,013s",PASSED
takeFullPageScreenshot(),Chrome 113.0.0.0,,,2023-05-11 21:30:32,2023-05-11 21:30:33,"0,877s",PASSED
,,,,,,,
Test Cases/Buy Events/TSEvents 02 - User melakukan pembayaran event/TCEvents 08 - User melakukan pembelian events melalui shoppepay,Chrome 113.0.0.0,User melakukan pembelian events melalui shoppepay,Events,2023-05-11 21:30:33,2023-05-11 21:31:56,"1m - 22,437s",PASSED
"callTestCase(findTestCase(""Buy Events/Login Events""), [:], STOP_ON_FAILURE)",Chrome 113.0.0.0,,,2023-05-11 21:30:34,2023-05-11 21:30:50,"15,921s",PASSED
takeFullPageScreenshot(),Chrome 113.0.0.0,,,2023-05-11 21:30:50,2023-05-11 21:30:55,"5,173s",PASSED
"click(findTestObject(""Buy Events/TSEvents 02 - User melakukan pembayaran event/TCEvents 08 - User melakukan pembelian events melalui shoppepay/menu_Events""))",Chrome 113.0.0.0,,,2023-05-11 21:30:55,2023-05-11 21:31:07,"12,221s",PASSED
takeFullPageScreenshot(),Chrome 113.0.0.0,,,2023-05-11 21:31:07,2023-05-11 21:31:10,"2,593s",PASSED
"click(findTestObject(""Buy Events/TSEvents 02 - User melakukan pembayaran event/TCEvents 08 - User melakukan pembelian events melalui shoppepay/day 4 workshop""))",Chrome 113.0.0.0,,,2023-05-11 21:31:10,2023-05-11 21:31:26,"15,917s",PASSED
takeFullPageScreenshot(),Chrome 113.0.0.0,,,2023-05-11 21:31:26,2023-05-11 21:31:28,"2,729s",PASSED
"click(findTestObject(""Buy Events/TSEvents 02 - User melakukan pembayaran event/TCEvents 08 - User melakukan pembelian events melalui shoppepay/a_Beli Tiket""))",Chrome 113.0.0.0,,,2023-05-11 21:31:28,2023-05-11 21:31:29,"0,466s",PASSED
takeFullPageScreenshot(),Chrome 113.0.0.0,,,2023-05-11 21:31:29,2023-05-11 21:31:31,"1,821s",PASSED
"click(findTestObject(""Buy Events/TSEvents 02 - User melakukan pembayaran event/TCEvents 08 - User melakukan pembelian events melalui shoppepay/a_Lihat Pembelian Saya""))",Chrome 113.0.0.0,,,2023-05-11 21:31:31,2023-05-11 21:31:34,"2,942s",PASSED
takeFullPageScreenshot(),Chrome 113.0.0.0,,,2023-05-11 21:31:34,2023-05-11 21:31:35,"0,969s",PASSED
"click(findTestObject(""Buy Events/TSEvents 02 - User melakukan pembayaran event/TCEvents 08 - User melakukan pembelian events melalui shoppepay/button_Checkout""))",Chrome 113.0.0.0,,,2023-05-11 21:31:35,2023-05-11 21:31:35,"0,500s",PASSED
takeFullPageScreenshot(),Chrome 113.0.0.0,,,2023-05-11 21:31:35,2023-05-11 21:31:36,"0,900s",PASSED
"click(findTestObject(""Buy Events/TSEvents 02 - User melakukan pembayaran event/TCEvents 08 - User melakukan pembelian events melalui shoppepay/input_Total Pembayaran_payment_method""))",Chrome 113.0.0.0,,,2023-05-11 21:31:36,2023-05-11 21:31:37,"0,463s",PASSED
takeFullPageScreenshot(),Chrome 113.0.0.0,,,2023-05-11 21:31:37,2023-05-11 21:31:37,"0,895s",PASSED
"click(findTestObject(""Buy Events/TSEvents 02 - User melakukan pembayaran event/TCEvents 08 - User melakukan pembelian events melalui shoppepay/button_Confirm""))",Chrome 113.0.0.0,,,2023-05-11 21:31:37,2023-05-11 21:31:38,"0,605s",PASSED
delay(10),Chrome 113.0.0.0,,,2023-05-11 21:31:38,2023-05-11 21:31:48,"10,005s",PASSED
takeFullPageScreenshot(),Chrome 113.0.0.0,,,2023-05-11 21:31:48,2023-05-11 21:31:49,"0,951s",PASSED
"click(findTestObject(""Buy Events/TSEvents 02 - User melakukan pembayaran event/TCEvents 08 - User melakukan pembelian events melalui shoppepay/a_ShopeePay""))",Chrome 113.0.0.0,,,2023-05-11 21:31:49,2023-05-11 21:31:50,"0,779s",PASSED
delay(5),Chrome 113.0.0.0,,,2023-05-11 21:31:50,2023-05-11 21:31:55,"5,016s",PASSED
takeFullPageScreenshot(),Chrome 113.0.0.0,,,2023-05-11 21:31:55,2023-05-11 21:31:56,"0,998s",PASSED
,,,,,,,
Test Cases/Buy Events/TSEvents 02 - User melakukan pembayaran event/TCEvents 09 - User melakukan pembelian events melalui indomaret,Chrome 113.0.0.0,User melakukan pembelian events melalui indomaret,Events,2023-05-11 21:31:56,2023-05-11 21:33:54,"1m - 58,386s",PASSED
"openBrowser("""")",Chrome 113.0.0.0,,,2023-05-11 21:31:56,2023-05-11 21:31:59,"2,360s",PASSED
"navigateToUrl(""www.demo-app.online/"")",Chrome 113.0.0.0,,,2023-05-11 21:31:59,2023-05-11 21:32:32,"33,081s",PASSED
"click(findTestObject(""Change Profile/Login Change Profile/a_Masuk""))",Chrome 113.0.0.0,,,2023-05-11 21:32:32,2023-05-11 21:32:35,"3,674s",PASSED
"setText(findTestObject(""Change Profile/Login Change Profile/input_Email_email""), ""jeypecker01@gmail.com"")",Chrome 113.0.0.0,,,2023-05-11 21:32:35,2023-05-11 21:32:36,"0,900s",PASSED
"setText(findTestObject(""Change Profile/Login Change Profile/input_Kata sandi""), ""Arumnika28@"")",Chrome 113.0.0.0,,,2023-05-11 21:32:36,2023-05-11 21:32:37,"0,821s",PASSED
"click(findTestObject(""Change Profile/Login Change Profile/button_Login""))",Chrome 113.0.0.0,,,2023-05-11 21:32:37,2023-05-11 21:32:40,"2,423s",PASSED
takeFullPageScreenshot(),Chrome 113.0.0.0,,,2023-05-11 21:32:40,2023-05-11 21:32:45,"5,328s",PASSED
"click(findTestObject(""Buy Events/TSEvents 02 - User melakukan pembayaran event/TCEvents 09 - User melakukan pembelian events melalui indomaret/menu_Events""))",Chrome 113.0.0.0,,,2023-05-11 21:32:45,2023-05-11 21:33:01,"15,960s",PASSED
takeFullPageScreenshot(),Chrome 113.0.0.0,,,2023-05-11 21:33:01,2023-05-11 21:33:04,"2,678s",PASSED
"click(findTestObject(""Buy Events/TSEvents 02 - User melakukan pembayaran event/TCEvents 09 - User melakukan pembelian events melalui indomaret/day 4 workshop""))",Chrome 113.0.0.0,,,2023-05-11 21:33:04,2023-05-11 21:33:23,"18,996s",PASSED
takeFullPageScreenshot(),Chrome 113.0.0.0,,,2023-05-11 21:33:23,2023-05-11 21:33:25,"2,761s",PASSED
"click(findTestObject(""Buy Events/TSEvents 02 - User melakukan pembayaran event/TCEvents 09 - User melakukan pembelian events melalui indomaret/a_Beli Tiket""))",Chrome 113.0.0.0,,,2023-05-11 21:33:25,2023-05-11 21:33:26,"0,444s",PASSED
takeFullPageScreenshot(),Chrome 113.0.0.0,,,2023-05-11 21:33:26,2023-05-11 21:33:28,"1,850s",PASSED
"click(findTestObject(""Buy Events/TSEvents 02 - User melakukan pembayaran event/TCEvents 09 - User melakukan pembelian events melalui indomaret/a_Lihat Pembelian Saya""))",Chrome 113.0.0.0,,,2023-05-11 21:33:28,2023-05-11 21:33:32,"4,105s",PASSED
takeFullPageScreenshot(),Chrome 113.0.0.0,,,2023-05-11 21:33:32,2023-05-11 21:33:33,"0,953s",PASSED
"click(findTestObject(""Buy Events/TSEvents 02 - User melakukan pembayaran event/TCEvents 09 - User melakukan pembelian events melalui indomaret/button_Checkout""))",Chrome 113.0.0.0,,,2023-05-11 21:33:33,2023-05-11 21:33:33,"0,481s",PASSED
takeFullPageScreenshot(),Chrome 113.0.0.0,,,2023-05-11 21:33:33,2023-05-11 21:33:34,"0,855s",PASSED
"click(findTestObject(""Buy Events/TSEvents 02 - User melakukan pembayaran event/TCEvents 09 - User melakukan pembelian events melalui indomaret/input_Total Pembayaran_payment_method""))",Chrome 113.0.0.0,,,2023-05-11 21:33:34,2023-05-11 21:33:35,"0,532s",PASSED
takeFullPageScreenshot(),Chrome 113.0.0.0,,,2023-05-11 21:33:35,2023-05-11 21:33:36,"0,934s",PASSED
"click(findTestObject(""Buy Events/TSEvents 02 - User melakukan pembayaran event/TCEvents 09 - User melakukan pembelian events melalui indomaret/button_Confirm""))",Chrome 113.0.0.0,,,2023-05-11 21:33:36,2023-05-11 21:33:36,"0,476s",PASSED
delay(10),Chrome 113.0.0.0,,,2023-05-11 21:33:36,2023-05-11 21:33:46,"10,020s",PASSED
"scrollToElement(findTestObject(""Buy Events/TSEvents 02 - User melakukan pembayaran event/TCEvents 09 - User melakukan pembelian events melalui indomaret/a_Indomaret""), 0)",Chrome 113.0.0.0,,,2023-05-11 21:33:46,2023-05-11 21:33:47,"0,585s",PASSED
takeFullPageScreenshot(),Chrome 113.0.0.0,,,2023-05-11 21:33:47,2023-05-11 21:33:48,"0,933s",PASSED
"click(findTestObject(""Buy Events/TSEvents 02 - User melakukan pembayaran event/TCEvents 09 - User melakukan pembelian events melalui indomaret/a_Indomaret""))",Chrome 113.0.0.0,,,2023-05-11 21:33:48,2023-05-11 21:33:48,"0,769s",PASSED
delay(5),Chrome 113.0.0.0,,,2023-05-11 21:33:48,2023-05-11 21:33:53,"5,019s",PASSED
takeFullPageScreenshot(),Chrome 113.0.0.0,,,2023-05-11 21:33:53,2023-05-11 21:33:54,"0,878s",PASSED
